540181 641562 509
627582 645324 416
91962 717702 509
342853 912189 525
879547 304468 525
679969 355211 509
699447 978333 525
240728 671716 509
475137 629053 509
39579 508531 449
238187 864826 525
981026 222419 525
985648 470841 525
715838 265194 509
338059 324672 366
136062 354164 443
191453 190484 285
338635 481796 449
99422 671784 509
906731 935697 476
922560 293742 525
205451 764010 509
698354 463452 509
141947 899203 525
610525 642619 509
992906 513994 525
972790 58736 525
675381 145339 509
783566 279829 509
781652 23980 509
427290 840649 525
713109 921051 525
370663 36090 443
160047 222273 386
748037 784609 468
886740 713797 525
359101 862401 525
478763 163067 449
893707 710279 525
637736 848542 525
265318 617244 470
673845 604789 509
903731 316275 525
194245 960632 525
171989 825363 509
932193 190489 525
651837 725177 504
517208 145942 470
557435 755118 509
394483 795914 509
812871 63639 509
371976 603468 470
691517 944011 525
191781 266542 443
161816 683002 509
8467 235282 443
125885 409513 443
143936 958520 525
781362 934977 525
935278 61568 525
842345 949233 507
825575 67282 509
81939 411682 449
717535 196747 509
881899 536235 525
368270 92131 443
129687 451928 449
795323 710928 468
65291 859237 525
363121 271040 441
890403 509974 525
21777 461068 449
939230 133639 525
141716 990024 525
242229 583037 470
17507 74599 340
444109 796108 509
236069 457543 449
861946 523723 525
243376 8056 443
300949 274820 389
202536 962882 525
593056 675417 509
430477 342940 449
371005 517649 470
738242 171977 509
654403 146632 509
890188 916617 476
810248 958665 525
799307 700908 504
190585 691013 509
309934 724849 509
884418 76018 525
206275 416246 449
711818 384876 509
278360 524769 470
433352 7834 449
1207 283192 443
933156 279405 525
611643 573086 434
909821 580926 525
272329 832329 509
693308 404480 509
191557 856327 525
543075 152602 470
441968 197214 449
901373 511680 525
171918 16340 383
697737 35735 509
399965 535726 470
895486 843676 445
576999 688567 509
773125 795099 437
581872 679318 509
247314 565393 470
32728 740877 509
705467 111781 509
195620 68964 383
91783 806872 509
419020 366287 449
161736 277885 443
932531 847203 476
250287 319870 407
855168 742934 525
851681 128457 525
21387 962582 525
886585 320545 525
809392 443755 509
562864 686217 509
810572 176624 509
452001 491668 444
498488 790746 509
227979 225958 368
320543 518648 470
10146 924536 525
560204 321423 470
265519 684397 509
672083 94337 509
475288 959826 525
53006 224159 386
944545 300736 525
261220 132575 443
346906 315691 441
251715 925925 525
332266 317895 384
512232 665060 509
329061 213383 443
945953 215915 525
184340 548670 470
862738 199999 525
558246 198469 470
92143 965384 525
894771 583362 525
159964 964735 525
159575 470445 449
745491 80783 509
763349 603182 509
400819 781933 509
337953 657193 509
597373 613129 403
955039 394971 525
312306 16651 443
934230 146757 525
794100 88194 509
593284 919343 525
512093 638696 509
24679 212952 383
581101 340410 470
190683 685615 509
290221 171680 443
415714 469807 444
937064 212966 525
362299 285556 441
855412 718006 525
980534 670292 525
313355 290060 384
932768 49570 525
619215 8066 470
207448 66380 383
10013 616171 470
5180 140137 354
675148 938182 525
797045 459622 509
75888 872906 525
101275 114221 354
414468 212343 449
242715 117614 443
673331 653613 442
218913 626759 509
234685 721983 509
368822 945586 525
74864 732954 509
822501 103672 509
450234 591748 470
84953 93456 333
518445 474479 470
681546 485853 509
412935 689957 509
589116 253533 470
959496 573377 525
94795 927513 525
147988 485754 449
817277 986066 525
164731 767212 509
917432 41508 525
506093 63592 449
728329 295686 509
833271 14048 509
392378 208026 443
865854 724520 525
477229 243484 449
975773 356511 525
992161 253659 525
989524 841245 507
862649 627468 525
653347 392492 509
87626 54181 351
575865 704132 509
229839 614935 470
878434 529576 525
804181 402157 509
60909 475956 449
651841 865347 525
479627 425409 444
510239 184986 449
676432 237429 509
318401 412854 449
623528 554474 447
450053 830404 509
885152 702465 525
935934 161589 525
445671 943457 525
336462 194280 443
747294 425819 509
763291 286470 509
266123 592528 470
490419 618274 470
703181 93017 509
409889 111381 443
709884 767693 424
398831 624190 470
472586 675995 509
839409 937621 476
772141 926397 525
297553 158361 443
298153 400662 441
372435 789030 509
922391 939007 476
22398 945027 525
3057 527767 470
